<?xml version="1.0" encoding="UTF-8" standalone="no"?>
<!-- Created with Inkscape (http://www.inkscape.org/) -->

<svg
   width="1400"
   height="1400"
   viewBox="0 0 370.41666 370.41667"
   version="1.1"
   id="svg5"
   inkscape:export-filename="crossword-border-mask-white.png"
   inkscape:export-xdpi="96"
   inkscape:export-ydpi="96"
   inkscape:version="1.2 (dc2aeda, 2022-05-15)"
   sodipodi:docname="masks.svg"
   xmlns:inkscape="http://www.inkscape.org/namespaces/inkscape"
   xmlns:sodipodi="http://sodipodi.sourceforge.net/DTD/sodipodi-0.dtd"
   xmlns="http://www.w3.org/2000/svg"
   xmlns:svg="http://www.w3.org/2000/svg">
  <sodipodi:namedview
     id="namedview7"
     pagecolor="#ffffff"
     bordercolor="#000000"
     borderopacity="0.25"
     inkscape:showpageshadow="2"
     inkscape:pageopacity="0.0"
     inkscape:pagecheckerboard="0"
     inkscape:deskcolor="#d1d1d1"
     inkscape:document-units="mm"
     showgrid="false"
     inkscape:zoom="0.58781078"
     inkscape:cx="681.3417"
     inkscape:cy="649.01837"
     inkscape:window-width="1390"
     inkscape:window-height="1027"
     inkscape:window-x="0"
     inkscape:window-y="25"
     inkscape:window-maximized="0"
     inkscape:current-layer="layer1" />
  <defs
     id="defs2" />
  <g
     inkscape:label="Layer 1"
     inkscape:groupmode="layer"
     id="layer1">
    <rect
       style="fill:#000000;stroke-width:0.264583"
       id="rect1163"
       width="370.24734"
       height="370.41666"
       x="0.16932315"
       y="-8.8817842e-16"
       rx="0.27103969"
       ry="0" />
    <rect
       style="fill:#000000;stroke-width:0.630439"
       id="rect63"
       width="370.41666"
       height="370.41666"
       x="2.9073024e-06"
       y="0"
       ry="13.857941"
       rx="26.877567" />
    <rect
       style="fill:#ffffff;stroke-width:0.27779"
       id="rect362"
       width="343.85007"
       height="346.13959"
       x="13.367962"
       y="12.138535"
       rx="36.779545"
       ry="25.110855" />
  </g>
</svg>
